[Main]
FileType=CIR
Version=9.00
Program=Micro-Cap
Screen=1920,1080
MCAPVersion=9.0.6.1
Key ID=2 233 293 684
NLCnt=131
TXCnt=12

[shapedef]
Name=Battery
Line=0,0,22,0
Line=22,-3,22,3
Line=26,-7,26,7
Line=26,0,48,0
Current=32,8,16,8

[shapedef]
Name=Sine_Source
Root="Vsource.root",0,-12,0
Line=24,-6,26,-4
Line=26,-4,26,-2
Line=26,-2,22,2
Line=22,2,22,4
Line=22,4,24,6

[shapedef]
Name=Resistor
PolyOpen=12 
PolyLine=0,0
PolyLine=0,0
PolyLine=12,0
PolyLine=14,-4
PolyLine=18,4
PolyLine=22,-4
PolyLine=26,4
PolyLine=30,-4
PolyLine=34,4
PolyLine=36,0
PolyLine=48,0
PolyLine=48,0
Current=32,8,16,8

[shapedef]
Name=Capacitor
Line=0,0,22,0
Line=22,-8,22,8
Line=26,-8,26,8
Line=26,0,48,0
Current=32,12,16,12

[shapedef]
Name=NPN
Root="Bjt.root",0,-24,0
PolyClosed=3 ,Solid
PolyLine=20,12
PolyLine=24,12
PolyLine=24,8

[shapedef]
Name=PNP
Root="Bjt.root",0,-24,0
PolyClosed=3 ,Solid
PolyLine=17,-5
PolyLine=21,-5
PolyLine=17,-9
Line=16,-4,14,-2
Line=16,4,14,2

[shapedef]
Name=Opamp5
Root="Opamp.root",0,-4,0
Root="Plus.root",23,-6,0
Root="Minus.root",23,52,0
Line=32,56,32,34
Line=32,-8,32,13

[shapedef]
Name=Ground
Line=0,0,12,0
Line=12,-8,12,8
Line=18,-4,18,4
Line=24,0,24,0

[shapedef]
Name=Opamp.root
Line=0,48,6,48
Line=0,0,5,0
Line=6,-4,6,52
Line=6,-4,48,24
Line=6,52,48,24
Line=48,24,72,24
Line=10,12,14,12
Line=12,10,12,14
Line=10,36,14,36
Line=4,0,6,0

[shapedef]
Name=Minus.root
Line=-2,0,2,0

[shapedef]
Name=Vsource.root
Line=0,0,12,0
Line=36,0,48,0
Ellipse=12,-12,36,12
Line=7,5,7,9
Root="Plus.root",39,5,0
Current=32,16,16,16

[shapedef]
Name=Plus.root
Line=-2,0,2,0
Line=0,-2,0,2

[shapedef]
Name=Bjt.root
Line=0,0,13,0
Rectangle=13,-12,15,12,SOLID
Current=32,-24,32,-16
Current=32,24,32,16
Current=0,-8,8,-8
PolyOpen=3 
PolyLine=24,-24
PolyLine=24,-12
PolyLine=14,-2
PolyOpen=3 
PolyLine=24,24
PolyLine=24,12
PolyLine=14,2

[compdef]
Name=TL072_TI
Definition=Subckt
Shape=Opamp5
Mask=4224
memo=Dual Low Noise JFET Input General Purpose Opamp
Label Offset=51,34,-8,44
PinCnt=5
Pin="1",a,0,0,-3,-4
Pin="2",a,0,6,-3,18
Pin="3",a,4,-1,6,15
Pin="4",a,4,7,6,0
Pin="5",a,9,3,-3,-3

[compdef]
Name=Ground
Definition=Ground
Shape=Ground
Mask=1793
memo=Ground
Label Offset=0,0,0,0
PinCnt=1
Pin="PinA",0,0,-3,-7

[compdef]
Name=Battery
Definition=Battery
Shape=Battery
Mask=4865
memo=Battery
Label Offset=19,7,10,13
PinCnt=2
Pin="Plus",6,0,-4,-5
Pin="Minus",0,0,-10,-5

[compdef]
Name=Resistor
Definition=Resistor
Shape=Resistor
Mask=6913
memo=Resistor
Label Offset=18,6,8,11
PinCnt=2
Pin="Plus",6,0,-10,-4
Pin="Minus",0,0,-14,-4

[compdef]
Name=Capacitor
Definition=Capacitor
Shape=Capacitor
Mask=7425
memo=Capacitor
Label Offset=16,12,12,12
PinCnt=2
Pin="Plus",6,0,-3,-5
Pin="Minus",0,0,-14,-5

[compdef]
Name=Sine Source
Definition=Sine source
Shape=Sine_Source
Mask=4865
memo=Sine Source
Label Offset=18,12,15,12
PinCnt=2
Pin="Plus",6,0,-6,-6
Pin="Minus",0,0,-19,-6

[compdef]
Name=MMBT4401LT1_ON
Definition=NPN
Shape=NPN
Mask=4992
memo=NPN Switching Transistor 40V .6A
Label Offset=27,-14,-6,26
PinCnt=3
Pin="Collector",3,-3,5,3
Pin="Base",0,0,-19,-3
Pin="Emitter",3,3,6,4
Cost=0.04

[compdef]
Name=BC547
Definition=NPN
Shape=NPN
Mask=4992
memo=NPN Amplifier Transistor 45V .1A
Label Offset=29,-11,-6,26
PinCnt=3
Pin="Collector",3,-3,5,3
Pin="Base",0,0,-19,-3
Pin="Emitter",3,3,6,4

[compdef]
Name=BC557
Definition=PNP
Shape=PNP
Mask=4480
memo=PNP Amplifier Transistor 45V .1A
Label Offset=29,-11,-3,25
PinCnt=3
Pin="Collector",3,3,6,5
Pin="Base",0,0,-19,-3
Pin="Emitter",3,-3,6,8

[Circuit]
Window Placement=2,3, -1,-1, -8,-31, 104,104,1447,730
Default Object=Color=#000080
Default Object Font=Height=-15,FStyle=0,Color=#000080,Name=Arial
Default Object Apply Border To Text=No
Default Object Apply Fill To Text=No
WinBackGround Color=#FFFFFF
Select Color=#FF0000
Select Box Color=#000080
Grid Text Color=Height=-12,FStyle=0,Color=#0000FF,Name=Verdana
Component Color=#0000FF
Attribute Text=Height=-12,FStyle=0,Color=#008000,Name=Verdana
Wire Color=#008000
Bus Color=#008000
Pin Connection=Height=-10,FStyle=0,Color=#FF0000,Name=Arial
Node Number=Height=-11,FStyle=0,Color=#FF00FF,Name=Arial
Node Voltage Color=#000000
Dynamic AC Voltage Color=#E4E4E4
Text Banner Text=Height=-15,FStyle=0,Color=#800000,Name=Arial
Title Block Background=#C0C0C0
Current=Height=-11,FStyle=0,Color=#0000FF,Name=Arial
Power/Condition=Height=-11,FStyle=0,Color=#FF0000,Name=Arial
Digital Path Color=#FF0000
Title Block=Height=-15,FStyle=0,Color=#000000,Name=Arial
Disabled	Color=#C0C0C0
KeyWord Color=#0000FF
Error	Color=#FF0000
Digital 0 Color=#000000
Digital R Color=#FFFF00
Digital F Color=#FFFF00
Digital 1 Color=#FF0000
Digital X Color=#C0C0C0
Digital Z Color=#808080
Window Placement in Transient Probe=0,1, -1,-1, -8,-31, 953,0,1906,908
SpiceType=AMBIGUOUS
Block Select Color=#51F998
TitleBlock Field_1=$name
TitleBlock Field_2=$user $company
TitleBlock Field_3
TitleBlock Field_4=$date
TitleBlock Field_5=Page $page of $maxpage
TitleBlock One Title=False
Title_Block_Border=False
Title_Block=False
Show Nodes=False
Show Voltages=False
Show Current=False
Show Power=False
Show Condition=False
Show Pin Connections=False
Show Cross=False
Show Attribute Text=True
Show Grid Text=True

[Comp]
Name=TL072_TI
Grid=58,34

[Attr]
ONV=51,34,PART,X1
Style=8192

[Attr]
ONV=51,48,NAME,TL072_TI

[Attr]
ONV=51,76,PACKAGE,DIP8

[Attr]
ONV=51,90,GATE,A

[Attr]
ONV=51,104,COMPNAME,UX1

[Comp]
Name=Ground
Grid=62,43
Rot=7

[Comp]
Name=Battery
Grid=137,40
Rot=3

[Attr]
ONV=-26,-27,PART,V1
Style=8192

[Attr]
ONV=-18,-41,VALUE,9
Style=8192

[Comp]
Name=Ground
Grid=137,42
Rot=7

[Comp]
Name=Resistor
Grid=54,40
Rot=2

[Attr]
ONV=-34,-20,PART,R2
Style=8192

[Attr]
ONV=-42,9,RESISTANCE,2k
Style=8192

[Comp]
Name=Resistor
Grid=65,48
Rot=2

[Attr]
ONV=-34,-20,PART,R3
Style=8192

[Attr]
ONV=-42,9,RESISTANCE,4k
Style=8192

[Comp]
Name=Capacitor
Grid=40,40
Rot=4

[Attr]
ONV=16,-26,PART,C1
Style=8192

[Attr]
ONV=9,11,CAPACITANCE,2.2u
Style=8192

[Wire]
Grids=56,40,56,48

[Wire]
Grids=54,40,56,40

[Wire]
Grids=56,48,59,48

[Wire]
Grids=65,48,69,48

[Wire]
Grids=69,37,69,48

[Wire]
Grids=67,37,69,37

[Wire]
Grids=69,48,69,59

[Wire]
Grids=14,34,58,34

[Wire]
Grids=62,28,62,33

[Wire]
Grids=62,41,62,43

[Wire]
Grids=137,40,137,42

[Comp]
Name=Resistor
Grid=130,40
Rot=3

[Attr]
ONV=-24,-25,PART,R4
Style=8192

[Attr]
ONV=-42,-39,RESISTANCE,100k
Style=8192

[Comp]
Name=Resistor
Grid=130,50
Rot=3

[Attr]
ONV=-24,-25,PART,R5
Style=8192

[Attr]
ONV=-42,-39,RESISTANCE,100k
Style=8192

[Wire]
Grids=137,30,137,34

[Wire]
Grids=130,30,137,30

[Wire]
Grids=130,30,130,34

[Wire]
Grids=130,26,130,30

[Wire]
Grids=130,40,130,42

[Wire]
Grids=124,42,130,42

[Wire]
Grids=130,42,130,44

[Comp]
Name=Ground
Grid=130,52
Rot=7

[Wire]
Grids=130,50,130,52

[Wire]
Grids=46,40,48,40

[Comp]
Name=Capacitor
Grid=71,48
Rot=4

[Attr]
ONV=16,-26,PART,C3
Style=8192

[Attr]
ONV=9,11,CAPACITANCE,2.2u
Style=8192

[Comp]
Name=Sine Source
Grid=37,47
Rot=3

[Attr]
ONV=-31,-26,PART,V2
Style=8192

[Attr]
ONV=-50,-40,MODEL,1MHZ

[Wire]
Grids=37,40,37,41

[Wire]
Grids=37,40,40,40

[Comp]
Name=Ground
Grid=37,48
Rot=7

[Wire]
Grids=37,47,37,48

[Comp]
Name=MMBT4401LT1_ON
Grid=22,68
Rot=6

[Attr]
ONV=-44,-14,PART,Q1
Style=8192

[Attr]
ONV=-138,0,MODEL,MMBT4401LT1_ON
Style=8192

[Attr]
ONV=-27,14,COST,0.04

[Attr]
ONV=-27,42,PACKAGE,SOT-23

[Wire]
Grids=22,68,25,68

[Comp]
Name=Resistor
Grid=19,61
Rot=3

[Attr]
ONV=-32,-21,PART,R18
Style=8192

[Attr]
ONV=-26,-39,RESISTANCE,6k
Style=8192

[Comp]
Name=Resistor
Grid=19,79
Rot=3

[Attr]
ONV=-38,-22,PART,R19
Style=8192

[Attr]
ONV=-33,-41,RESISTANCE,2k
Style=8192

[Comp]
Name=Resistor
Grid=25,76
Rot=3

[Attr]
ONV=-38,-22,PART,R20
Style=8192

[Attr]
ONV=-36,-37,RESISTANCE,33k
Style=8192

[Comp]
Name=Resistor
Grid=25,65
Rot=3

[Attr]
ONV=-38,-22,PART,R21
Style=8192

[Attr]
ONV=-42,-39,RESISTANCE,100k
Style=8192

[Wire]
Grids=19,61,19,63

[Wire]
Grids=19,71,19,73

[Wire]
Grids=25,65,25,68

[Wire]
Grids=25,68,27,68

[Wire]
Grids=25,68,25,70

[Comp]
Name=Ground
Grid=25,77
Rot=7

[Comp]
Name=Ground
Grid=19,80
Rot=7

[Wire]
Grids=19,79,19,80

[Wire]
Grids=25,76,25,77

[Wire]
Grids=19,53,19,55

[Wire]
Grids=25,57,25,59

[Wire]
Grids=14,63,19,63

[Wire]
Grids=14,34,14,63

[Comp]
Name=Capacitor
Grid=102,45
Rot=4

[Attr]
ONV=16,-26,PART,C11
Style=8192

[Attr]
ONV=9,11,CAPACITANCE,2.2u
Style=8192

[Wire]
Grids=108,45,111,45

[Comp]
Name=Resistor
Grid=111,54
Rot=3

[Attr]
ONV=-36,-20,PART,R23
Style=8192

[Attr]
ONV=-28,-35,RESISTANCE,1k
Style=8192

[Wire]
Grids=111,45,111,48

[Comp]
Name=Ground
Grid=111,56
Rot=7

[Wire]
Grids=111,54,111,56

[Wire]
Grids=111,45,113,45

[Comp]
Name=TL072_TI
Grid=89,42

[Attr]
ONV=51,34,PART,X2
Style=8192

[Attr]
ONV=51,48,NAME,TL072_TI

[Attr]
ONV=51,76,PACKAGE,DIP8

[Attr]
ONV=51,90,GATE,A

[Attr]
ONV=51,104,COMPNAME,UX1

[Comp]
Name=Ground
Grid=93,50
Rot=7

[Wire]
Grids=93,37,93,41

[Wire]
Grids=93,49,93,50

[Comp]
Name=Resistor
Grid=85,48
Rot=2

[Attr]
ONV=-34,-20,PART,R24
Style=8192

[Attr]
ONV=-42,9,RESISTANCE,10k
Style=8192

[Comp]
Name=Resistor
Grid=97,57
Rot=2

[Attr]
ONV=-37,-23,PART,R25
Style=8192

[Attr]
ONV=-42,9,RESISTANCE,14k
Style=8192

[Comp]
Name=Resistor
Grid=86,40
Rot=3

[Attr]
ONV=-38,-20,PART,R26
Style=8192

[Attr]
ONV=-42,-39,RESISTANCE,100k
Style=8192

[Wire]
Grids=86,42,89,42

[Wire]
Grids=86,40,86,42

[Wire]
Grids=77,48,79,48

[Wire]
Grids=85,48,87,48

[Wire]
Grids=87,48,87,57

[Wire]
Grids=87,57,91,57

[Wire]
Grids=87,48,89,48

[Wire]
Grids=97,57,100,57

[Wire]
Grids=100,45,100,57

[Wire]
Grids=98,45,100,45

[Wire]
Grids=100,45,102,45

[Wire]
Grids=86,32,86,34

[Wire]
Grids=19,63,19,65

[Wire]
Grids=49,68,50,68

[Wire]
Grids=69,48,71,48

[Wire]
Grids=56,40,58,40

[Comp]
Name=Resistor
Grid=46,81
Rot=3

[Attr]
ONV=-32,-39,PART,R27
Style=8192

[Attr]
ONV=-38,-24,RESISTANCE,100k
Style=8192

[Comp]
Name=Ground
Grid=46,83
Rot=7

[Wire]
Grids=46,81,46,83

[Comp]
Name=Resistor
Grid=40,75
Rot=7

[Attr]
ONV=-32,11,PART,R28
Style=8192

[Attr]
ONV=-39,25,RESISTANCE,100k
Style=8192

[Wire]
Grids=46,71,46,73

[Wire]
Grids=49,61,50,61

[Wire]
Grids=58,61,58,68

[Wire]
Grids=56,68,58,68

[Wire]
Grids=34,61,36,61

[Wire]
Grids=34,61,34,68

[Wire]
Grids=46,55,46,58

[Comp]
Name=Resistor
Grid=77,68
Rot=2

[Attr]
ONV=-34,-20,PART,R29
Style=8192

[Attr]
ONV=-37,8,RESISTANCE,20k
Style=8192

[Wire]
Grids=69,68,71,68

[Comp]
Name=Resistor
Grid=69,59
Rot=1

[Attr]
ONV=11,12,PART,R30
Style=8192

[Attr]
ONV=9,25,RESISTANCE,20k
Style=8192

[Wire]
Grids=69,65,69,68

[Comp]
Name=Ground
Grid=79,70
Rot=7

[Wire]
Grids=79,68,79,70

[Wire]
Grids=77,68,79,68

[Comp]
Name=Capacitor
Grid=27,68
Rot=4

[Attr]
ONV=16,-26,PART,C12
Style=8192

[Attr]
ONV=9,11,CAPACITANCE,2.2u
Style=8192

[Wire]
Grids=33,68,34,68

[Comp]
Name=Capacitor
Grid=61,68
Rot=4

[Attr]
ONV=16,-26,PART,C13
Style=8192

[Attr]
ONV=9,11,CAPACITANCE,2.2u
Style=8192

[Wire]
Grids=67,68,69,68

[Comp]
Name=Resistor
Grid=60,65
Rot=3

[Attr]
ONV=12,-21,PART,R31
Style=8192

[Attr]
ONV=8,-40,RESISTANCE,47k
Style=8192

[Wire]
Grids=60,65,60,68

[Comp]
Name=Resistor
Grid=60,76
Rot=3

[Attr]
ONV=-32,-25,PART,R32
Style=8192

[Attr]
ONV=-31,-39,RESISTANCE,47k
Style=8192

[Comp]
Name=Ground
Grid=60,78
Rot=7

[Wire]
Grids=46,73,46,75

[Wire]
Grids=60,68,60,70

[Comp]
Name=BC547
Grid=46,71
Rot=5
COff=8,368,568,10,23
COff=8,392,544,24,22
COff=8,344,544,-62,21

[Attr]
ONV=-5,-40,PART,Q6
Style=8192

[Attr]
ONV=-45,-3,MODEL,BC547
Style=8192

[Attr]
ONV=32,-82,PACKAGE,TO-92

[Comp]
Name=BC557
Grid=46,58
Rot=1
COff=8,368,464,-50,-28
COff=8,344,488,-2,9
COff=8,392,488,4,13

[Attr]
ONV=-3,25,PART,Q7
Style=8192

[Attr]
ONV=-3,39,MODEL,BC557
Style=8192

[Attr]
ONV=-3,67,PACKAGE,TO-92

[Wire]
Grids=40,73,46,73

[Wire]
Grids=40,73,40,75

[Wire]
Grids=40,81,40,85

[Wire]
Grids=60,76,60,78

[Wire]
Grids=60,68,61,68

[Wire]
Grids=60,57,60,59

[Comp]
Name=Resistor
Grid=56,61
Rot=2
COff=8,414,468,-6,-10

[Attr]
ONV=-34,-20,PART,R33
Style=8192

[Attr]
ONV=-34,6,RESISTANCE,10
Style=8192

[Wire]
Grids=56,61,58,61

[Wire]
Grids=34,68,36,68

[Comp]
Name=Resistor
Grid=56,68
Rot=2

[Attr]
ONV=-34,-20,PART,R34
Style=8192

[Attr]
ONV=-34,6,RESISTANCE,1k
Style=8192

[Comp]
Name=Resistor
Grid=42,68
Rot=2

[Attr]
ONV=-34,-20,PART,R35
Style=8192

[Attr]
ONV=-34,6,RESISTANCE,10
Style=8192

[Comp]
Name=Resistor
Grid=42,61
Rot=2

[Attr]
ONV=-34,-20,PART,R36
Style=8192

[Attr]
ONV=-34,6,RESISTANCE,1k
Style=8192

[Wire]
Grids=42,61,43,61

[Wire]
Grids=42,68,43,68

[Wire]
Grids=58,68,60,68

[Wire]
Grids=111,54,111,54

[Node Offsets]
Section=0
;Node,Page,GridX,GridY,OffsetX,OffsetY
Offset=21,0,43,61,-28,-37

[Grid Text]
Text="BIAS_BJT"
Grid=46,55
CBorder=NONE

[Grid Text]
Text="BIAS_BJT"
Grid=46,73
CBorder=NONE

[Grid Text]
Text="BIAS"
Grid=124,42
CBorder=NONE

[Grid Text]
Text="VCC"
Grid=130,26
CBorder=NONE

[Grid Text]
Text="VCC"
Grid=62,28
CBorder=NONE

[Grid Text]
Text="VCC"
Grid=19,53
CBorder=NONE

[Grid Text]
Text="VCC"
Grid=25,57
CBorder=NONE

[Grid Text]
Text="out"
Grid=111,45
CBorder=NONE

[Grid Text]
Text="VCC"
Grid=93,37
CBorder=NONE

[Grid Text]
Text="BIAS"
Grid=86,32
CBorder=NONE

[Grid Text]
Text="VCC"
Grid=40,85
CBorder=NONE

[Grid Text]
Text="VCC"
Grid=60,57
CBorder=NONE

[Schematic]
CurrentSection 0=0
CurrentSection 1=0
CurrentSection 2=0
CurrentSection 3=0
Splitter.xs=0
Splitter.ys=0
TextQuad=4099
Scale=0.6666666666666666
PrinterScale=1
GridUser=10
ShapeGroups="Main","Euro","DeMorgan","Polarity","Electrolytic"
CalcRMS=False
CalcAVG=False
CalcPeak=False
DisplayMeasure=Last

[Tools]
Pos=Top
PROBE=Yes
SELECT=Yes
COMP=Yes
TEXT=Yes
WIRE=Yes
WIRED=Yes
BUS=Yes
GRAPHIC=Yes
LINE=No
ELLIPSE=No
RECT=No
DIAM=No
ARC=No
PIE=No
LEFTBRK=No
RIGHTBRK=No
BOTHBRK=No
FLAG=Yes
META=No
INFO=Yes
HELP=Yes
LINK=Yes
REGION_ENABLE=Yes
DIGTRC=No
DIGTRC2=No
DIGALL=No
GRIDTEXT=Yes
COMPTEXT=Yes
NODE=Yes
MEASURED=Yes
NODEV=Yes
CURRENT=Yes
POWER=Yes
CONDITIN=Yes
PIN=Yes
CROSS=No
GRID=Yes
BORDER=No
TITLE=Yes
RUBBER=Yes
PROPERTY=Yes
STEP=Yes
MIRROR=Yes
ROTATE=Yes
FLIPY=Yes
FLIPX=Yes
FINDCOMP=Yes
FIND=Yes
REPEAT=No
MODEL=Yes
CIR2CKT=No
ATTDISP=No
ENABLE=Yes
DISABLE=Yes
TOFRONT=Yes
TOBACK=Yes
SELNEXT=No
PAGEADD=No
PAGEDEL=No
ZOOMIN=Yes
ZOOMOUT=Yes
GOTOFLAG=No
UPLEVEL=Yes
COLOR=Yes
FONT=Yes

[Section]
Index=0
Name="compressor"
Type=Main
Enable=True
CurrentPage 0=0
CurrentPage 1=0
CurrentPage 2=0
CurrentPage 3=0
TabSize 0=425
TabSize 1=425
TabSize 2=425
TabSize 3=425

[Page]
Index=0
Section=0
Print=True
Enable=True
Name=Main
Scale 0=1
Scale 1=1
Scale 2=1
SB 3=99,211
Scale 3=0.6666666666666666
Grid=112,56

[Page]
Index=1
Section=0
Type=Text
Print=False
Enable=True
Name=Text

[Page]
Index=2
Section=0
Type=Text
Print=False
Enable=True
Name=Models
SB 0=22,2

[Page]
Index=3
Section=0
Type=Info
Print=False
Enable=True
Name=Info

[Text Area]
Section=0
Page=1
Font=Height=-15,FStyle=0,Color=#000000,Name=Courier New
Comment Color=#008000
Background Color=#FFFFFF
Len=0


[Text Area]
Section=0
Page=2
Font=Height=-15,FStyle=0,Color=#000000,Name=Courier New
Comment Color=#008000
Background Color=#FFFFFF
Len=106
*** From file C:\Program Files\MC9\library\UTILITY.LBR
*** 1MHz Sinusoidal Source
.MODEL 1MHZ SIN (F=1k)

[Transient]
Font=Height=-15,FStyle=0,Color=#0000FF,Name=Arial
WinBackGround Color=#FFFFFF
Select Color=#FF0000
Select Box Color=#000080
Window Placement in Probe=0,1, -1,-1, 0,0, 0,0,953,908
Title
AutoTitle=Yes
Grid Color=#808080
Grid Weight=1
Grid Pattern=Dot6
Tracker Foreground=Height=-15,FStyle=0,Color=#000000,Name=Arial
Tracker Background=#FFFF00
Baseline color=#0000FF
Static Grids=False
PlusMark=False
MinorLog25=Off
LabelMinor=Off
OperPoint=True
OperPointOnly=False
AutoScaleRanges=False
DataPoints=False
Token=False
Ruler=False
XAxisGrids=True
YAxisGrids=True
MinorLogGrids=True
BaseLine=False
Graph Background=#FFFFFF
Tracker Intercept=False
Tracker Mouse=True
Tracker Cursor=True
Tracker Cursor BranchInfo=False
Horizontal Cursor=False
Same Y Scales=Yes
Enable X Scaling=True
Enable Y Scaling=True
Keep X Scales The Same=False
Number of Grids X=5
Number of Grids Y=5
Cursor Select Color Primary=#C0C0C0
Cursor Select Color Secondary=#FF0000
Data Point Labels Color Fore=Height=-15,FStyle=0,Color=#000000,Name=Arial
Data Point Labels Color Back=#FFFF00
FFT_NPts="1024"
FFT_IncludeDCHarmonic=False
FFT_AutoScale_Harmonics="10"
PrinterAutoTile=No
PrinterBlackBorder=No
AnimateWait=0
AnimateWaitTime=500
Save_For_Future=No
Reduce_Display=1
Reduce_Save=1
Num Out Header Left
Num Out Header Center="$MC\n$user\n$company\n$Analysis of $name"
Num Out Header Right
Num Out Delimiter=32
Num Out Write=True
Num Out Write Main Header=True
Num Out Write Limits=True
Num Out Write Branch Header=True
Num Out Write Models=True
Num Out Write Zero Models=True
Num Out Write Undefined Models=True
Num Out Write Operating Point=True
Num Out Write Values=True
Num Out Write Waveform Header=True
Num Out Low="TMIN"
Num Out High="TMAX"
Num Out Font=Height=-15,FStyle=0,Color=#000000,Name=Courier New

[Tools]
Pos=Top
SELECT=Yes
GRAPHIC=Yes
LINE=No
ELLIPSE=No
RECT=No
DIAM=No
ARC=No
PIE=No
LEFTBRK=No
RIGHTBRK=No
BOTHBRK=No
POLYCLOS=No
SCALE=Yes
CURSOR=Yes
MEASUREH=Yes
MEASUREV=Yes
TAG=Yes
PTAG=Yes
TEXT=Yes
PROPERTY=Yes
START=Yes
STOP=Yes
PAUSE=Yes
DATAPTS=Yes
TOKENS=Yes
RULER=Yes
PLUS=Yes
XAXIS=Yes
YAXIS=Yes
MINORLOG=Yes
LOG25=Yes
BASELINE=Yes
HORIZCUR=Yes
GOTOX=Yes
GOTOY=Yes
GOTOPERF=Yes
GOTOBRNC=Yes
CLEAR_ACCUMULATED=Yes
PDELETE_ALL_PLOTS=Yes
NEXT=Yes
NEXTIN=Yes
PEAK=Yes
VALLEY=Yes
HIGH=Yes
LOW=Yes
INFLECTN=Yes
GHIGH=Yes
GLOW=Yes
BOTTOM=Yes
TOP=Yes
WAVEFORMBUFFER=Yes
AOUTPUT=Yes
PKEY=Yes
ENXSCALE=Yes
ENYSCALE=Yes
ZOOMIN=Yes
ZOOMOUT=Yes
AUTOSCALE=Yes
COLOR=Yes
FONT=Yes
SELNEXT=No

[Monte Carlo Options]
Analysis=Transient
Status=Off
Zero Tolerance=False
Distribution=Normal
Number of Runs=10
Seed=0

[Limits]
Analysis=Transient
TRange=20m
TStep=2u
NPts=51
Temp=27
RetraceRuns=1
StateVar=Zero
RunOption=Normal
Temperature Type=Linear
Accumulate Plots=False

[WaveForm]
Analysis=Transient
Plt=1
AliasID=1
XExp=T
YExp=v(VCC)
XRng=Auto
YRng=Auto
Options=LINEARX,LINEARY
Line Color=#0000FF
Text Color=#0000FF
Rainbow=False
VFmtX=3
VFmtY=3
ScaleFactorX="None"
ScaleFactorY="None"
ScaleUnitsX="Auto"
ScaleUnitsY="Auto"
SFmtX=3
SFmtY=3

[WaveForm]
Analysis=Transient
Plt=1
AliasID=2
XExp=T
YExp=v(BIAS)
XRng=Auto
YRng=Auto
Options=LINEARX,LINEARY
Line Color=#FF0000
Text Color=#FF0000
Rainbow=False
VFmtX=3
VFmtY=3
ScaleFactorX="None"
ScaleFactorY="None"
ScaleUnitsX="Auto"
ScaleUnitsY="Auto"
SFmtX=3
SFmtY=3

[WaveForm]
Analysis=Transient
AliasID=-1
Options=LINEARX,LINEARY
Line Color=#008000
Text Color=#008000
Rainbow=False
VFmtX=3
VFmtY=3
ScaleFactorX="None"
ScaleFactorY="None"
ScaleUnitsX="Auto"
ScaleUnitsY="Auto"
SFmtX=3
SFmtY=3

[Limits]
Analysis=DynamicAC
FirstValueDisplay=Mag
SecondValueDisplay=PhaseDeg
PlaceText=True

[Limits]
Analysis=DynamicDC
Temp=27
SliderPer=10
PlaceText=True

[Pane]
Analysis=Transient

[Pane]
Analysis=AC

[Pane]
Analysis=DC

[Pane]
Analysis=Distortion

[Stepping]
Analysis=Transient
Index=1
Status=On
Parameter Type=Component
Name=V2
Param=A
From=0.4
To=1.2
Value=0.2

[Stepping]
Analysis=Transient
Index=2
Parameter Type=Component
Name=R29
Param=Value
From=5k
To=40k
Value=3k

[Stepping]
Analysis=Transient
Index=3
Parameter Type=Component
Name=R27
Param=Value
From=100k
To=150k
Value=7.5k

[Watch]
Analysis=Transient
Format=3
ExprPercentWidth=80

[OPMethods]
Analysis=Transient
Standard Newton-Raphson=0,0
Source Stepping=0,0
Diagonal Gmin Stepping=0,0
Junction Gmin Stepping=0,0
Pseudo Transient=0,0

[OPMethods]
Analysis=AC
Standard Newton-Raphson=0,0
Source Stepping=0,0
Diagonal Gmin Stepping=0,0
Junction Gmin Stepping=0,0
Pseudo Transient=0,0

[OPMethods]
Analysis=DC
Standard Newton-Raphson=0,0
Source Stepping=0,0
Diagonal Gmin Stepping=0,0
Junction Gmin Stepping=0,0
Pseudo Transient=0,0
