[Main]
FileType=CIR
Version=9.00
Program=Micro-Cap
Screen=1920,1080
MCAPVersion=9.0.6.1
Key ID=2 233 293 684
NLCnt=59
TXCnt=1

[shapedef]
Name=Battery
Line=0,0,22,0
Line=22,-3,22,3
Line=26,-7,26,7
Line=26,0,48,0
Current=32,8,16,8

[shapedef]
Name=Sine_Source
Root="Vsource.root",0,-12,0
Line=24,-6,26,-4
Line=26,-4,26,-2
Line=26,-2,22,2
Line=22,2,22,4
Line=22,4,24,6

[shapedef]
Name=Resistor
PolyOpen=12 
PolyLine=0,0
PolyLine=0,0
PolyLine=12,0
PolyLine=14,-4
PolyLine=18,4
PolyLine=22,-4
PolyLine=26,4
PolyLine=30,-4
PolyLine=34,4
PolyLine=36,0
PolyLine=48,0
PolyLine=48,0
Current=32,8,16,8

[shapedef]
Name=Capacitor
Line=0,0,22,0
Line=22,-8,22,8
Line=26,-8,26,8
Line=26,0,48,0
Current=32,12,16,12

[shapedef]
Name=NPN
Root="Bjt.root",0,-24,0
PolyClosed=3 ,Solid
PolyLine=20,12
PolyLine=24,12
PolyLine=24,8

[shapedef]
Name=Ground
Line=0,0,12,0
Line=12,-8,12,8
Line=18,-4,18,4
Line=24,0,24,0

[shapedef]
Name=Vsource.root
Line=0,0,12,0
Line=36,0,48,0
Ellipse=12,-12,36,12
Line=7,5,7,9
Root="Plus.root",39,5,0
Current=32,16,16,16

[shapedef]
Name=Plus.root
Line=-2,0,2,0
Line=0,-2,0,2

[shapedef]
Name=Bjt.root
Line=0,0,13,0
Rectangle=13,-12,15,12,SOLID
Current=32,-24,32,-16
Current=32,24,32,16
Current=0,-8,8,-8
PolyOpen=3 
PolyLine=24,-24
PolyLine=24,-12
PolyLine=14,-2
PolyOpen=3 
PolyLine=24,24
PolyLine=24,12
PolyLine=14,2

[compdef]
Name=Battery
Definition=Battery
Shape=Battery
Mask=4865
memo=Battery
Label Offset=19,7,10,13
PinCnt=2
Pin="Plus",6,0,-4,-5
Pin="Minus",0,0,-10,-5

[compdef]
Name=NPN
Definition=NPN
Shape=NPN
Mask=4097
memo=NPN Transistor
Label Offset=28,-13,-5,23
PinCnt=3
Pin="Collector",3,-3,4,14
Pin="Base",0,0,-18,-3
Pin="Emitter",3,3,5,1

[compdef]
Name=Ground
Definition=Ground
Shape=Ground
Mask=1793
memo=Ground
Label Offset=0,0,0,0
PinCnt=1
Pin="PinA",0,0,-3,-7

[compdef]
Name=Resistor
Definition=Resistor
Shape=Resistor
Mask=6657
memo=Resistor
Label Offset=18,6,8,11
PinCnt=2
Pin="Plus",6,0,-10,-4
Pin="Minus",0,0,-14,-4

[compdef]
Name=Capacitor
Definition=Capacitor
Shape=Capacitor
Mask=6913
memo=Capacitor
Label Offset=16,12,12,12
PinCnt=2
Pin="Plus",6,0,-3,-5
Pin="Minus",0,0,-14,-5

[compdef]
Name=Sine Source
Definition=Sine source
Shape=Sine_Source
Mask=4865
memo=Sine Source
Label Offset=18,12,15,12
PinCnt=2
Pin="Plus",6,0,-6,-6
Pin="Minus",0,0,-19,-6

[Circuit]
Window Placement=2,3, -1,-1, -8,-31, 0,56,1411,682
Default Object=Color=#000080
Default Object Font=Height=-15,FStyle=0,Color=#000080,Name=Arial
Default Object Apply Border To Text=No
Default Object Apply Fill To Text=No
WinBackGround Color=#FFFFFF
Select Color=#FF0000
Select Box Color=#000080
Grid Text Color=Height=-12,FStyle=0,Color=#0000FF,Name=Verdana
Component Color=#0000FF
Attribute Text=Height=-12,FStyle=0,Color=#008000,Name=Verdana
Wire Color=#008000
Bus Color=#008000
Pin Connection=Height=-10,FStyle=0,Color=#FF0000,Name=Arial
Node Number=Height=-11,FStyle=0,Color=#FF00FF,Name=Arial
Node Voltage Color=#000000
Dynamic AC Voltage Color=#E4E4E4
Text Banner Text=Height=-15,FStyle=0,Color=#800000,Name=Arial
Title Block Background=#C0C0C0
Current=Height=-11,FStyle=0,Color=#0000FF,Name=Arial
Power/Condition=Height=-11,FStyle=0,Color=#FF0000,Name=Arial
Digital Path Color=#FF0000
Title Block=Height=-15,FStyle=0,Color=#000000,Name=Arial
Disabled	Color=#C0C0C0
KeyWord Color=#0000FF
Error	Color=#FF0000
Digital 0 Color=#000000
Digital R Color=#FFFF00
Digital F Color=#FFFF00
Digital 1 Color=#FF0000
Digital X Color=#C0C0C0
Digital Z Color=#808080
Window Placement in Transient Probe=0,1, -1,-1, -8,-31, 953,0,1906,908
Window Placement in AC Analysis=2,3, -1,-1, -8,-31, 182,182,1611,808
SpiceType=AMBIGUOUS
Block Select Color=#51F998
TitleBlock Field_1=$name
TitleBlock Field_2=$user $company
TitleBlock Field_3
TitleBlock Field_4=$date
TitleBlock Field_5=Page $page of $maxpage
TitleBlock One Title=False
Title_Block_Border=False
Title_Block=False
Show Nodes=False
Show Voltages=True
Show Current=False
Show Power=False
Show Condition=False
Show Pin Connections=False
Show Cross=False
Show Attribute Text=True
Show Grid Text=True

[Comp]
Name=Battery
Grid=87,38
Rot=3

[Attr]
ONV=-26,-27,PART,V1
Style=8192

[Attr]
ONV=-26,-41,VALUE,36
Style=8192

[Wire]
Grids=87,30,87,32

[Comp]
Name=NPN
Grid=61,61

[Attr]
ONV=32,-17,PART,Q6
Style=8192

[Attr]
ONV=28,1,MODEL,BC547A
Style=8192

[Attr]
ONV=28,29,PACKAGE,TO-92

[Comp]
Name=NPN
Grid=61,48

[Attr]
ONV=28,-13,PART,Q7
Style=8192

[Attr]
ONV=28,1,MODEL,BC547A
Style=8192

[Attr]
ONV=28,29,PACKAGE,TO-92

[Wire]
Grids=64,51,64,55

[Comp]
Name=Ground
Grid=64,74
Rot=7

[Comp]
Name=Resistor
Grid=64,33
Rot=1

[Attr]
ONV=10,10,PART,R15
Style=8192

[Attr]
ONV=10,23,RESISTANCE,4k
Style=8192

[Wire]
Grids=64,30,64,33

[Wire]
Grids=64,30,87,30

[Comp]
Name=Resistor
Grid=57,33
Rot=1

[Attr]
ONV=10,10,PART,R16
Style=8192

[Attr]
ONV=10,23,RESISTANCE,47k
Style=8192

[Wire]
Grids=57,48,61,48

[Wire]
Grids=57,39,57,42

[Wire]
Grids=57,30,57,33

[Wire]
Grids=57,30,64,30

[Wire]
Grids=64,39,64,43

[Comp]
Name=Ground
Grid=79,51
Rot=7

[Comp]
Name=Capacitor
Grid=74,43
Rot=2

[Attr]
ONV=-29,-26,PART,C2
Style=8192

[Attr]
ONV=-35,7,CAPACITANCE,1u
Style=8192

[Comp]
Name=Resistor
Grid=79,44
Rot=1

[Attr]
ONV=10,10,PART,R18
Style=8192

[Attr]
ONV=10,23,RESISTANCE,100k
Style=8192

[Wire]
Grids=74,43,75,43

[Wire]
Grids=79,43,79,44

[Wire]
Grids=79,50,79,51

[Wire]
Grids=64,43,68,43

[Wire]
Grids=64,43,64,45

[Comp]
Name=Ground
Grid=87,40
Rot=7

[Wire]
Grids=87,38,87,40

[Wire]
Grids=75,43,79,43

[Comp]
Name=Sine Source
Grid=46,70
Rot=3

[Attr]
ONV=-41,-30,PART,Sine
Style=8192

[Attr]
ONV=-47,-47,MODEL,2MHZ
Style=8192

[Wire]
Grids=46,61,46,64

[Comp]
Name=Ground
Grid=46,72
Rot=7

[Wire]
Grids=46,70,46,72

[Comp]
Name=Capacitor
Grid=53,61
Rot=2

[Attr]
ONV=-29,-26,PART,C4
Style=8192

[Attr]
ONV=-35,7,CAPACITANCE,1u
Style=8192

[Wire]
Grids=46,61,47,61

[Comp]
Name=Resistor
Grid=53,42
Rot=2

[Attr]
ONV=-31,-21,PART,R1
Style=8192

[Attr]
ONV=-33,7,RESISTANCE,14k
Style=8192

[Wire]
Grids=53,61,55,61

[Comp]
Name=Capacitor
Grid=47,48

[Attr]
ONV=16,-24,PART,C5
Style=8192

[Attr]
ONV=13,7,CAPACITANCE,10n
Style=8192

[Wire]
Grids=53,48,57,48

[Comp]
Name=Ground
Grid=45,50
Rot=7

[Wire]
Grids=45,48,45,50

[Wire]
Grids=45,48,47,48

[Comp]
Name=Resistor
Grid=64,66
Rot=1

[Attr]
ONV=10,10,PART,R19
Style=8192

[Attr]
ONV=10,23,RESISTANCE,1k
Style=8192

[Wire]
Grids=64,64,64,65

[Wire]
Grids=64,72,64,73

[Wire]
Grids=53,42,57,42

[Wire]
Grids=45,42,47,42

[Wire]
Grids=45,42,45,48

[Comp]
Name=Resistor
Grid=62,55
Rot=2

[Attr]
ONV=-31,-21,PART,R20
Style=8192

[Attr]
ONV=-33,7,RESISTANCE,70k
Style=8192

[Wire]
Grids=55,55,56,55

[Wire]
Grids=55,55,55,61

[Wire]
Grids=55,61,61,61

[Wire]
Grids=62,55,64,55

[Wire]
Grids=64,55,64,58

[Wire]
Grids=57,42,57,48

[Comp]
Name=Capacitor
Grid=70,66
Rot=1

[Attr]
ONV=12,9,PART,C6
Style=8192

[Attr]
ONV=11,25,CAPACITANCE,1u
Style=8192

[Wire]
Grids=70,65,70,66

[Wire]
Grids=64,65,70,65

[Wire]
Grids=64,65,64,66

[Wire]
Grids=64,73,70,73

[Wire]
Grids=70,72,70,73

[Wire]
Grids=64,73,64,74

[Node Offsets]
Section=0
;Node,Page,GridX,GridY,OffsetX,OffsetY
Offset=1,0,87,32,15,11
Offset=2,0,64,58,24,-24
Offset=3,0,61,61,-45,16
Offset=4,0,64,64,24,6
Offset=5,0,64,45,26,-29
Offset=6,0,61,48,-54,-61
Offset=8,0,46,64,-12,-15

[Grid Text]
Text="kaskod_out"
Grid=75,43
CBorder=NONE

[Schematic]
CurrentSection 0=0
CurrentSection 1=0
CurrentSection 2=0
CurrentSection 3=0
Splitter.xs=0
Splitter.ys=0
TextQuad=4099
Scale=0.6666666666666666
PrinterScale=1
GridType=Normal
GridUser=10
ShapeGroups="Main","Euro","DeMorgan","Polarity","Electrolytic"
CalcRMS=False
CalcAVG=False
CalcPeak=False
DisplayMeasure=Last

[Tools]
Pos=Top
PROBE=Yes
SELECT=Yes
COMP=Yes
TEXT=Yes
WIRE=Yes
WIRED=Yes
BUS=Yes
GRAPHIC=Yes
LINE=No
ELLIPSE=No
RECT=No
DIAM=No
ARC=No
PIE=No
LEFTBRK=No
RIGHTBRK=No
BOTHBRK=No
FLAG=Yes
META=No
INFO=Yes
HELP=Yes
LINK=Yes
REGION_ENABLE=Yes
DIGTRC=No
DIGTRC2=No
DIGALL=No
GRIDTEXT=Yes
COMPTEXT=Yes
NODE=Yes
MEASURED=Yes
NODEV=Yes
CURRENT=Yes
POWER=Yes
CONDITIN=Yes
PIN=Yes
CROSS=No
GRID=Yes
BORDER=No
TITLE=Yes
RUBBER=Yes
PROPERTY=Yes
STEP=Yes
MIRROR=Yes
ROTATE=Yes
FLIPY=Yes
FLIPX=Yes
FINDCOMP=Yes
FIND=Yes
REPEAT=No
MODEL=Yes
CIR2CKT=No
ATTDISP=No
ENABLE=Yes
DISABLE=Yes
TOFRONT=Yes
TOBACK=Yes
SELNEXT=No
PAGEADD=No
PAGEDEL=No
ZOOMIN=Yes
ZOOMOUT=Yes
GOTOFLAG=No
UPLEVEL=Yes
COLOR=Yes
FONT=Yes

[Section]
Index=0
Name="kaskod"
Type=Main
Enable=True
CurrentPage 0=0
CurrentPage 1=0
CurrentPage 2=0
CurrentPage 3=0
TabSize 0=425
TabSize 1=425
TabSize 2=425
TabSize 3=425

[Page]
Index=0
Section=0
Print=True
Enable=True
Name=Main
Scale 0=1
Scale 1=1
Scale 2=1
SB 3=144,164
Scale 3=0.6666666666666666
Grid=75,86

[Page]
Index=1
Section=0
Type=Text
Print=False
Enable=True
Name=Text

[Page]
Index=2
Section=0
Type=Text
Print=False
Enable=True
Name=Models

[Page]
Index=3
Section=0
Type=Info
Print=False
Enable=True
Name=Info

[Text Area]
Section=0
Page=1
Font=Height=-15,FStyle=0,Color=#000000,Name=Courier New
Comment Color=#008000
Background Color=#FFFFFF
Len=0


[Text Area]
Section=0
Page=2
Font=Height=-15,FStyle=0,Color=#000000,Name=Courier New
Comment Color=#008000
Background Color=#FFFFFF
Len=37

.MODEL 2MHZ SIN (A=20m F=2MEG RS=1)

[Transient]
Font=Height=-15,FStyle=0,Color=#0000FF,Name=Arial
WinBackGround Color=#FFFFFF
Select Color=#FF0000
Select Box Color=#000080
Window Placement in Probe=0,1, -1,-1, 0,0, 0,0,953,908
Title
AutoTitle=Yes
Grid Color=#808080
Grid Weight=1
Grid Pattern=Dot6
Tracker Foreground=Height=-15,FStyle=0,Color=#000000,Name=Arial
Tracker Background=#FFFF00
Baseline color=#0000FF
Static Grids=False
PlusMark=False
MinorLog25=Off
LabelMinor=Off
OperPoint=True
OperPointOnly=False
AutoScaleRanges=False
DataPoints=False
Token=False
Ruler=False
XAxisGrids=True
YAxisGrids=True
MinorLogGrids=True
BaseLine=False
Graph Background=#FFFFFF
Tracker Intercept=False
Tracker Mouse=True
Tracker Cursor=True
Tracker Cursor BranchInfo=False
Horizontal Cursor=False
Same Y Scales=Yes
Enable X Scaling=True
Enable Y Scaling=True
Keep X Scales The Same=False
Number of Grids X=5
Number of Grids Y=5
Cursor Select Color Primary=#C0C0C0
Cursor Select Color Secondary=#FF0000
Data Point Labels Color Fore=Height=-15,FStyle=0,Color=#000000,Name=Arial
Data Point Labels Color Back=#FFFF00
FFT_NPts="1024"
FFT_IncludeDCHarmonic=False
FFT_AutoScale_Harmonics="10"
PrinterAutoTile=No
PrinterBlackBorder=No
AnimateWait=0
AnimateWaitTime=500
Save_For_Future=No
Reduce_Display=1
Reduce_Save=1
Num Out Header Left
Num Out Header Center="$MC\n$user\n$company\n$Analysis of $name"
Num Out Header Right
Num Out Delimiter=32
Num Out Write=True
Num Out Write Main Header=True
Num Out Write Limits=True
Num Out Write Branch Header=True
Num Out Write Models=True
Num Out Write Zero Models=True
Num Out Write Undefined Models=True
Num Out Write Operating Point=True
Num Out Write Values=True
Num Out Write Waveform Header=True
Num Out Low="TMIN"
Num Out High="TMAX"
Num Out Font=Height=-15,FStyle=0,Color=#000000,Name=Courier New

[Tools]
Pos=Top
SELECT=Yes
GRAPHIC=Yes
LINE=No
ELLIPSE=No
RECT=No
DIAM=No
ARC=No
PIE=No
LEFTBRK=No
RIGHTBRK=No
BOTHBRK=No
POLYCLOS=No
SCALE=Yes
CURSOR=Yes
MEASUREH=Yes
MEASUREV=Yes
TAG=Yes
PTAG=Yes
TEXT=Yes
PROPERTY=Yes
START=Yes
STOP=Yes
PAUSE=Yes
DATAPTS=Yes
TOKENS=Yes
RULER=Yes
PLUS=Yes
XAXIS=Yes
YAXIS=Yes
MINORLOG=Yes
LOG25=Yes
BASELINE=Yes
HORIZCUR=Yes
GOTOX=Yes
GOTOY=Yes
GOTOPERF=Yes
GOTOBRNC=Yes
CLEAR_ACCUMULATED=Yes
PDELETE_ALL_PLOTS=Yes
NEXT=Yes
NEXTIN=Yes
PEAK=Yes
VALLEY=Yes
HIGH=Yes
LOW=Yes
INFLECTN=Yes
GHIGH=Yes
GLOW=Yes
BOTTOM=Yes
TOP=Yes
WAVEFORMBUFFER=Yes
AOUTPUT=Yes
PKEY=Yes
ENXSCALE=Yes
ENYSCALE=Yes
ZOOMIN=Yes
ZOOMOUT=Yes
AUTOSCALE=Yes
COLOR=Yes
FONT=Yes
SELNEXT=No

[AC]
Window Placement=2,3, -1,-1, -8,-31, 182,182,1611,808
Font=Height=-15,FStyle=0,Color=#0000FF,Name=Arial
WinBackGround Color=#FFFFFF
Select Color=#FF0000
Select Box Color=#000080
Title=kaskod.cir
AutoTitle=Yes
Grid Color=#808080
Grid Weight=1
Grid Pattern=Dot6
Tracker Foreground=Height=-15,FStyle=0,Color=#000000,Name=Arial
Tracker Background=#FFFF00
Baseline color=#0000FF
Static Grids=False
PlusMark=False
MinorLog25=Off
LabelMinor=Off
OperPoint=True
OperPointOnly=False
AutoScaleRanges=False
DataPoints=False
Token=False
Ruler=False
XAxisGrids=True
YAxisGrids=True
MinorLogGrids=True
BaseLine=False
Graph Background=#FFFFFF
Tracker Intercept=False
Tracker Mouse=True
Tracker Cursor=True
Tracker Cursor BranchInfo=False
Horizontal Cursor=False
Same Y Scales=Yes
Enable X Scaling=True
Enable Y Scaling=True
Keep X Scales The Same=False
Number of Grids X=5
Number of Grids Y=5
Cursor Select Color Primary=#C0C0C0
Cursor Select Color Secondary=#FF0000
Data Point Labels Color Fore=Height=-15,FStyle=0,Color=#000000,Name=Arial
Data Point Labels Color Back=#FFFF00
FFT_NPts="1024"
FFT_IncludeDCHarmonic=False
FFT_AutoScale_Harmonics="10"
PrinterAutoTile=No
PrinterBlackBorder=No
MonMaxShow=2
MonPageWidth=66
MonPlotWidth=21
MonExprXWidth=142
MonExprYWidth=260
MonRangeXWidth=90
MonRangeYWidth=90
AnimateWait=0
AnimateWaitTime=500
Save_For_Future=No
Reduce_Display=1
Reduce_Save=1
Num Out Header Left
Num Out Header Center="$MC\n$user\n$company\n$Analysis of $name"
Num Out Header Right
Num Out Delimiter=32
Num Out Write=True
Num Out Write Main Header=True
Num Out Write Limits=True
Num Out Write Branch Header=True
Num Out Write Models=True
Num Out Write Zero Models=True
Num Out Write Undefined Models=True
Num Out Write Operating Point=True
Num Out Write Noise=True
Num Out Write Values=True
Num Out Write Waveform Header=True
Num Out Low="FMIN"
Num Out High="FMAX"
Num Out Font=Height=-15,FStyle=0,Color=#000000,Name=Courier New

[Tools]
Pos=Top
SELECT=Yes
GRAPHIC=Yes
LINE=No
ELLIPSE=No
RECT=No
DIAM=No
ARC=No
PIE=No
LEFTBRK=No
RIGHTBRK=No
BOTHBRK=No
POLYCLOS=No
SCALE=Yes
CURSOR=Yes
MEASUREH=Yes
MEASUREV=Yes
TAG=Yes
PTAG=Yes
TEXT=Yes
PROPERTY=Yes
START=Yes
STOP=Yes
PAUSE=Yes
DATAPTS=Yes
TOKENS=Yes
RULER=Yes
PLUS=Yes
XAXIS=Yes
YAXIS=Yes
MINORLOG=Yes
LOG25=Yes
BASELINE=Yes
HORIZCUR=Yes
GOTOX=Yes
GOTOY=Yes
GOTOPERF=Yes
GOTOBRNC=Yes
CLEAR_ACCUMULATED=Yes
PDELETE_ALL_PLOTS=Yes
NEXT=Yes
NEXTIN=Yes
PEAK=Yes
VALLEY=Yes
HIGH=Yes
LOW=Yes
INFLECTN=Yes
GHIGH=Yes
GLOW=Yes
BOTTOM=Yes
TOP=Yes
WAVEFORMBUFFER=Yes
AOUTPUT=Yes
PKEY=Yes
ENXSCALE=Yes
ENYSCALE=Yes
ZOOMIN=Yes
ZOOMOUT=Yes
AUTOSCALE=Yes
COLOR=Yes
FONT=Yes
SELNEXT=No

[APage]
Analysis=AC
Name="Main"

[Monte Carlo Options]
Analysis=Transient
Status=Off
Zero Tolerance=False
Distribution=Normal
Number of Runs=10
Seed=0

[Monte Carlo Options]
Analysis=AC
Status=Off
Zero Tolerance=False
Distribution=Normal
Number of Runs=10
Seed=0

[Limits]
Analysis=Transient
TRange=50u
TStep=0.01u
NPts=51
Temp=27
RetraceRuns=1
StateVar=Zero
RunOption=Normal
Temperature Type=Linear
Accumulate Plots=False

[WaveForm]
Analysis=Transient
Plt=1
AliasID=1
XExp=T
YExp=v(KASKOD_OUT)
XRng=Auto
YRng=Auto
Options=LINEARX,LINEARY
Line Color=#0000FF
Text Color=#0000FF
Rainbow=False
VFmtX=3
VFmtY=3
ScaleFactorX="None"
ScaleFactorY="None"
ScaleUnitsX="Auto"
ScaleUnitsY="Auto"
SFmtX=3
SFmtY=3

[WaveForm]
Analysis=Transient
Plt=1
AliasID=2
XExp=T
YExp=v(1)
XRng=Auto
YRng=Auto
Options=LINEARX,LINEARY
Line Color=#FF0000
Text Color=#FF0000
Rainbow=False
VFmtX=3
VFmtY=3
ScaleFactorX="None"
ScaleFactorY="None"
ScaleUnitsX="Auto"
ScaleUnitsY="Auto"
SFmtX=3
SFmtY=3

[WaveForm]
Analysis=Transient
AliasID=-1
Options=LINEARX,LINEARY
Line Color=#008000
Text Color=#008000
Rainbow=False
VFmtX=3
VFmtY=3
ScaleFactorX="None"
ScaleFactorY="None"
ScaleUnitsX="Auto"
ScaleUnitsY="Auto"
SFmtX=3
SFmtY=3

[Limits]
Analysis=AC
FRange=3Meg,1Meg
NPts=51
Temp=27
MaxChng=5
NInput=SINE
NOutput=2
Sweep type=Auto
StateVar=Zero
RunOption=Normal
Temperature Type=Linear
Accumulate Plots=False

[WaveForm]
Analysis=AC
Plt=1
AliasID=1
XExp=F
YExp=db(v(kaskod_out))
XRng=3e6,1e6
YRng=19.488,19.408
Options=LINEARY
Range Grid X=400000
Range Grid Y=0.016
CS=Normal
Line Color=#0000FF
Text Color=#0000FF
Rainbow=False
VFmtX=3
VFmtY=3
ScaleFactorX="None"
ScaleFactorY="None"
ScaleUnitsX="Auto"
ScaleUnitsY="Auto"
SFmtX=3
SFmtY=3

[WaveForm]
Analysis=AC
AliasID=-1
Options=LINEARY
Line Color=#008000
Text Color=#008000
Rainbow=False
VFmtX=3
VFmtY=3
ScaleFactorX="None"
ScaleFactorY="None"
ScaleUnitsX="Auto"
ScaleUnitsY="Auto"
SFmtX=3
SFmtY=3

[Limits]
Analysis=DynamicAC
FirstValueDisplay=Mag
SecondValueDisplay=PhaseDeg
PlaceText=True

[Limits]
Analysis=DynamicDC
Temp=27
SliderPer=10
PlaceText=True

[Pane]
Analysis=Transient

[Pane]
Analysis=AC
CurrentPage 0="Main"

[Pane]
Analysis=DC

[Pane]
Analysis=Distortion

[Watch]
Analysis=Transient
Format=3
ExprPercentWidth=80

[Watch]
Analysis=AC
Format=3
ExprPercentWidth=80

[OPMethods]
Analysis=Transient
Standard Newton-Raphson=0,0
Source Stepping=0,0
Diagonal Gmin Stepping=0,0
Junction Gmin Stepping=0,0
Pseudo Transient=0,0

[OPMethods]
Analysis=AC
Standard Newton-Raphson=0,0
Source Stepping=0,0
Diagonal Gmin Stepping=0,0
Junction Gmin Stepping=0,0
Pseudo Transient=0,0

[OPMethods]
Analysis=DC
Standard Newton-Raphson=0,0
Source Stepping=0,0
Diagonal Gmin Stepping=0,0
Junction Gmin Stepping=0,0
Pseudo Transient=0,0
