[Main]
FileType=CIR
Version=9.00
Program=Micro-Cap
Screen=1920,1080
MCAPVersion=9.0.6.1
Key ID=2 233 293 684
NLCnt=33
TXCnt=2

[shapedef]
Name=Battery
Line=0,0,22,0
Line=22,-3,22,3
Line=26,-7,26,7
Line=26,0,48,0
Current=32,8,16,8

[shapedef]
Name=Resistor
PolyOpen=12 
PolyLine=0,0
PolyLine=0,0
PolyLine=12,0
PolyLine=14,-4
PolyLine=18,4
PolyLine=22,-4
PolyLine=26,4
PolyLine=30,-4
PolyLine=34,4
PolyLine=36,0
PolyLine=48,0
PolyLine=48,0
Current=32,8,16,8

[shapedef]
Name=NPN
Root="Bjt.root",0,-24,0
PolyClosed=3 ,Solid
PolyLine=20,12
PolyLine=24,12
PolyLine=24,8

[shapedef]
Name=Ground
Line=0,0,12,0
Line=12,-8,12,8
Line=18,-4,18,4
Line=24,0,24,0

[shapedef]
Name=Bjt.root
Line=0,0,13,0
Rectangle=13,-12,15,12,SOLID
Current=32,-24,32,-16
Current=32,24,32,16
Current=0,-8,8,-8
PolyOpen=3 
PolyLine=24,-24
PolyLine=24,-12
PolyLine=14,-2
PolyOpen=3 
PolyLine=24,24
PolyLine=24,12
PolyLine=14,2

[compdef]
Name=MMBT2222ALT1_ON
Definition=NPN
Shape=NPN
Mask=4224
memo=NPN General Purpose Transistor 40V .6A
Label Offset=27,-14,-6,26
PinCnt=3
Pin="Collector",3,-3,5,3
Pin="Base",0,0,-19,-3
Pin="Emitter",3,3,6,4
Cost=0.029

[compdef]
Name=Battery
Definition=Battery
Shape=Battery
Mask=4865
memo=Battery
Label Offset=19,7,10,13
PinCnt=2
Pin="Plus",6,0,-4,-5
Pin="Minus",0,0,-10,-5

[compdef]
Name=Resistor
Definition=Resistor
Shape=Resistor
Mask=7169
memo=Resistor
Label Offset=18,6,8,11
PinCnt=2
Pin="Plus",6,0,-10,-4
Pin="Minus",0,0,-14,-4

[compdef]
Name=Ground
Definition=Ground
Shape=Ground
Mask=1793
memo=Ground
Label Offset=0,0,0,0
PinCnt=1
Pin="PinA",0,0,-3,-7

[Circuit]
Window Placement=2,3, -1,-1, -8,-31, 0,0,1339,641
Default Object=Color=#000080
Default Object Font=Height=-15,FStyle=0,Color=#000080,Name=Arial
Default Object Apply Border To Text=No
Default Object Apply Fill To Text=No
WinBackGround Color=#FFFFFF
Select Color=#FF0000
Select Box Color=#000080
Grid Text Color=Height=-12,FStyle=0,Color=#0000FF,Name=Verdana
Component Color=#0000FF
Attribute Text=Height=-12,FStyle=0,Color=#008000,Name=Verdana
Wire Color=#008000
Bus Color=#008000
Pin Connection=Height=-10,FStyle=0,Color=#FF0000,Name=Arial
Node Number=Height=-11,FStyle=0,Color=#FF00FF,Name=Arial
Node Voltage Color=#000000
Dynamic AC Voltage Color=#E4E4E4
Text Banner Text=Height=-15,FStyle=0,Color=#800000,Name=Arial
Title Block Background=#C0C0C0
Current=Height=-11,FStyle=0,Color=#0000FF,Name=Arial
Power/Condition=Height=-11,FStyle=0,Color=#FF0000,Name=Arial
Digital Path Color=#FF0000
Title Block=Height=-15,FStyle=0,Color=#000000,Name=Arial
Disabled	Color=#C0C0C0
KeyWord Color=#0000FF
Error	Color=#FF0000
Digital 0 Color=#000000
Digital R Color=#FFFF00
Digital F Color=#FFFF00
Digital 1 Color=#FF0000
Digital X Color=#C0C0C0
Digital Z Color=#808080
SpiceType=AMBIGUOUS
Block Select Color=#51F998
TitleBlock Field_1=$name
TitleBlock Field_2=$user $company
TitleBlock Field_3
TitleBlock Field_4=$date
TitleBlock Field_5=Page $page of $maxpage
TitleBlock One Title=False
Title_Block_Border=False
Title_Block=False
Show Nodes=False
Show Voltages=True
Show Current=True
Show Power=False
Show Condition=False
Show Pin Connections=False
Show Cross=False
Show Attribute Text=True
Show Grid Text=True

[Comp]
Name=MMBT2222ALT1_ON
Grid=53,57
COff=8,448,432,-58,-19

[Attr]
ONV=27,-14,PART,Q1
Style=8192

[Attr]
ONV=28,18,MODEL,MMBT2222ALT1_ON
Style=8192

[Attr]
ONV=27,14,COST,0.029

[Attr]
ONV=27,42,PACKAGE,SOT-23

[Comp]
Name=MMBT2222ALT1_ON
Grid=62,50

[Attr]
ONV=27,-14,PART,Q2
Style=8192

[Attr]
ONV=28,9,MODEL,MMBT2222ALT1_ON
Style=8192

[Attr]
ONV=27,14,COST,0.029

[Attr]
ONV=27,42,PACKAGE,SOT-23

[Comp]
Name=Battery
Grid=92,55
Rot=3

[Attr]
ONV=-26,-27,PART,V1
Style=8192

[Attr]
ONV=-18,-41,VALUE,5
Style=8192

[Comp]
Name=Battery
Grid=42,64
Rot=3

[Attr]
ONV=-26,-27,PART,V2
Style=8192

[Attr]
ONV=-30,-41,VALUE,3.3
Style=8192

[Comp]
Name=Resistor
Grid=56,48
Rot=3
COff=8,421,347,-42,-12

[Attr]
ONV=-27,-37,PART,R1
Style=8192

[Attr]
ONV=-42,-22,RESISTANCE,100k
Style=8192

[Comp]
Name=Resistor
Grid=65,43
Rot=3
COff=8,489,306,45,-3

[Attr]
ONV=-31,-38,PART,R2
Style=8192

[Attr]
ONV=-31,-21,RESISTANCE,100k
Style=8192

[Comp]
Name=Resistor
Grid=72,45
Rot=4
COff=8,594,340,40,-10

[Attr]
ONV=18,-20,PART,R3
Style=8192

[Attr]
ONV=18,-34,RESISTANCE,1Meg
Style=8192

[Wire]
Grids=65,43,65,45

[Wire]
Grids=56,48,56,50

[Wire]
Grids=56,50,62,50

[Wire]
Grids=56,50,56,54

[Comp]
Name=Resistor
Grid=45,57
Rot=4

[Attr]
ONV=18,-20,PART,R4
Style=8192

[Attr]
ONV=19,11,RESISTANCE,1k
Style=8192

[Wire]
Grids=65,45,72,45

[Wire]
Grids=65,45,65,47

[Comp]
Name=Ground
Grid=92,57
Rot=7

[Comp]
Name=Ground
Grid=65,55
Rot=7

[Comp]
Name=Ground
Grid=56,62
Rot=7

[Comp]
Name=Ground
Grid=42,66
Rot=7

[Wire]
Grids=42,57,42,58

[Wire]
Grids=42,57,45,57

[Wire]
Grids=51,57,53,57

[Wire]
Grids=56,60,56,62

[Wire]
Grids=42,64,42,66

[Wire]
Grids=65,53,65,55

[Wire]
Grids=92,55,92,57

[Wire]
Grids=92,45,92,49

[Wire]
Grids=56,34,56,42

[Wire]
Grids=56,34,65,34

[Wire]
Grids=65,32,65,34

[Wire]
Grids=65,34,65,37

[Wire]
Grids=78,45,80,45

[Wire]
Grids=80,45,80,47

[Comp]
Name=Ground
Grid=80,47
Rot=7

[Node Offsets]
Section=0
;Node,Page,GridX,GridY,OffsetX,OffsetY
Offset=1,0,56,54,18,-16
Offset=3,0,65,47,41,-27

[Grid Text]
Text="VCC"
Grid=65,32
CBorder=NONE

[Grid Text]
Text="VCC"
Grid=92,45
CBorder=NONE

[Schematic]
CurrentSection 0=0
CurrentSection 1=0
CurrentSection 2=0
CurrentSection 3=0
Splitter.xs=0
Splitter.ys=0
TextQuad=4099
Scale=0.6666666666666666
PrinterScale=1
GridUser=10
ShapeGroups="Main","Euro","DeMorgan","Polarity","Electrolytic"
CalcRMS=False
CalcAVG=False
CalcPeak=False
DisplayMeasure=Last

[Tools]
Pos=Top
PROBE=Yes
SELECT=Yes
COMP=Yes
TEXT=Yes
WIRE=Yes
WIRED=Yes
BUS=Yes
GRAPHIC=Yes
LINE=No
ELLIPSE=No
RECT=No
DIAM=No
ARC=No
PIE=No
LEFTBRK=No
RIGHTBRK=No
BOTHBRK=No
FLAG=Yes
META=No
INFO=Yes
HELP=Yes
LINK=Yes
REGION_ENABLE=Yes
DIGTRC=No
DIGTRC2=No
DIGALL=No
GRIDTEXT=Yes
COMPTEXT=Yes
NODE=Yes
MEASURED=Yes
NODEV=Yes
CURRENT=Yes
POWER=Yes
CONDITIN=Yes
PIN=Yes
CROSS=No
GRID=Yes
BORDER=No
TITLE=Yes
RUBBER=Yes
PROPERTY=Yes
STEP=Yes
MIRROR=Yes
ROTATE=Yes
FLIPY=Yes
FLIPX=Yes
FINDCOMP=Yes
FIND=Yes
REPEAT=No
MODEL=Yes
CIR2CKT=No
ATTDISP=No
ENABLE=Yes
DISABLE=Yes
TOFRONT=Yes
TOBACK=Yes
SELNEXT=No
PAGEADD=No
PAGEDEL=No
ZOOMIN=Yes
ZOOMOUT=Yes
GOTOFLAG=No
UPLEVEL=Yes
COLOR=Yes
FONT=Yes

[Section]
Index=0
Name="inv"
Type=Main
Enable=True
CurrentPage 0=0
CurrentPage 1=0
CurrentPage 2=0
CurrentPage 3=0
TabSize 0=425
TabSize 1=425
TabSize 2=425
TabSize 3=425

[Page]
Index=0
Section=0
Print=True
Enable=True
Name=Main
Scale 0=1
Scale 1=1
Scale 2=1
SB 3=125,97
Scale 3=0.6666666666666666
Grid=104,28

[Page]
Index=1
Section=0
Type=Text
Print=False
Enable=True
Name=Text

[Page]
Index=2
Section=0
Type=Text
Print=False
Enable=True
Name=Models

[Page]
Index=3
Section=0
Type=Info
Print=False
Enable=True
Name=Info

[Text Area]
Section=0
Page=1
Font=Height=-15,FStyle=0,Color=#000000,Name=Courier New
Comment Color=#008000
Background Color=#FFFFFF
Len=0


[Text Area]
Section=0
Page=2
Font=Height=-15,FStyle=0,Color=#000000,Name=Courier New
Comment Color=#008000
Background Color=#FFFFFF
Len=0


[Limits]
Analysis=DynamicAC
FirstValueDisplay=Mag
SecondValueDisplay=PhaseDeg
PlaceText=True

[Limits]
Analysis=DynamicDC
Temp=27
SliderPer=10
PlaceText=True

[Pane]
Analysis=Transient

[Pane]
Analysis=AC

[Pane]
Analysis=DC

[Pane]
Analysis=Distortion

[OPMethods]
Analysis=Transient
Standard Newton-Raphson=0,0
Source Stepping=0,0
Diagonal Gmin Stepping=0,0
Junction Gmin Stepping=0,0
Pseudo Transient=0,0

[OPMethods]
Analysis=AC
Standard Newton-Raphson=0,0
Source Stepping=0,0
Diagonal Gmin Stepping=0,0
Junction Gmin Stepping=0,0
Pseudo Transient=0,0

[OPMethods]
Analysis=DC
Standard Newton-Raphson=0,0
Source Stepping=0,0
Diagonal Gmin Stepping=0,0
Junction Gmin Stepping=0,0
Pseudo Transient=0,0
